[{
    "label": "President",
    "name": "John Doe",
    "children": [{
        "name" : "Jane Smith",
        "label": "Vice President of Administration",
        "children": [{
            "name": "Peter West",
            "label": "Director of Finance"
        }, {
            "name" : "Sarah Jones",
            "label": "Director of Human Resources"
        }]
    }, {
        "name" : "Richard Easton",
        "label": "Vice President of Operations",
        "children": [{
            "name" : "Amy Thomas",
            "label": "Director of Distribution"
        }, {
            "name" : "Greg Li",
            "label": "Director of Customer Service",
            "children": [{
                "name" : "Laronda Phillips",
                "label": "Technical Support Manager"
            }]
        }]
    }]
}]