<svg xmlns="http://www.w3.org/2000/svg" width="95.687" height="64.6" viewBox="0 0 95.687 64.6">
  <defs>
    <style>
      .cls-1 {
        fill: #252525;
        fill-rule: evenodd;
      }
    </style>
  </defs>
  <path class="cls-1" d="M414.147,2330.84a7.475,7.475,0,0,0,3.786,1.06,7.375,7.375,0,0,0,0-14.75,7.318,7.318,0,0,0-7.362,7.37,7.858,7.858,0,0,0,1.052,3.79l-30.4,30.46a7.476,7.476,0,0,0-3.787-1.06,7.783,7.783,0,0,0-3.786,1.06l-12.305-12.33a7.036,7.036,0,0,0,.946-3.58,7.362,7.362,0,1,0-14.724,0,7.154,7.154,0,0,0,1.051,3.68l-7.888,7.91a7.475,7.475,0,0,0-3.786-1.06,7.38,7.38,0,1,0,7.362,7.38,7.858,7.858,0,0,0-1.052-3.79l7.783-7.8a7.025,7.025,0,0,0,3.892,1.16,6.773,6.773,0,0,0,3.891-1.16l12.306,12.33a7.56,7.56,0,0,0-1.052,3.79,7.363,7.363,0,1,0,14.725,0,7.889,7.889,0,0,0-1.052-3.79Zm3.786-10.11a3.79,3.79,0,1,1-3.786,3.79A3.769,3.769,0,0,1,417.933,2320.73Zm-80.775,43.73a3.8,3.8,0,1,1,3.786-3.8A3.778,3.778,0,0,1,337.158,2364.46Zm17.985-17.81a3.8,3.8,0,1,1,3.787-3.79A3.776,3.776,0,0,1,355.143,2346.65Zm22.4,22.23a3.79,3.79,0,1,1,3.786-3.79A3.77,3.77,0,0,1,377.546,2368.88Zm-0.842-24.44v-6.11h-6.31v-3.48h10.517a3.585,3.585,0,0,0,0-7.17h-4.838a7.06,7.06,0,0,1,0-14.12H376.7v-5.48h3.471v5.48h6.1v3.48H375.968a3.58,3.58,0,0,0,0,7.16h4.838a7.065,7.065,0,0,1,0,14.13h-0.631v6.11H376.7Z" transform="translate(-329.594 -2308.09)"/>
</svg>
