<svg xmlns="http://www.w3.org/2000/svg" width="79.374" height="75.28" viewBox="0 0 79.374 75.28">
  <defs>
    <style>
      .cls-1 {
        fill: #252525;
        fill-rule: evenodd;
      }
    </style>
  </defs>
  <path class="cls-1" d="M718.394,2360.46a39.661,39.661,0,1,0-74.929-19.5,1.251,1.251,0,0,0-.012.48c-0.007.3-.023,0.6-0.023,0.9a39.341,39.341,0,0,0,8.729,24.74l-7.84,2.31a1.236,1.236,0,0,0-.838,1.54h0a1.247,1.247,0,0,0,1.54.83l23.935-7.06c10.456-3.05,13.434-5.28,14.074-7.05,1.345,0.85,1.6,1.58,1.611,1.98,0.167,4.49-17.685,12.03-30.414,15.95a1.24,1.24,0,0,0-.82,1.55,1.256,1.256,0,0,0,1.55.82c5.423-1.67,32.461-10.4,32.163-18.41-0.081-2.19-1.929-3.96-5.629-5.35a10.479,10.479,0,0,0-1.761-.91c2.295,0.04,4.061.12,4.907,0.17,4.917,0.28,9.756.6,14.443,2.21,3.579,1.23,7.643,2.98,9.991,6.09a6.516,6.516,0,0,1,1.16,2.31c0.855,3.32-1.478,7.27-6.932,11.75a1.238,1.238,0,0,0,1.576,1.91c6.264-5.14,8.874-9.95,7.758-14.28a10.925,10.925,0,0,0-4.392-5.86c5.117,1.85,8.714,4.25,10.563,7.12,1.878,2.92,2.024,6.31.447,10.36a1.239,1.239,0,1,0,2.312.89c1.859-4.77,1.633-9.01-.672-12.59A14.591,14.591,0,0,0,718.394,2360.46Zm-1.966-1.56c-7.684-5.37-20.886-7.3-31.647-7.93-2.114-.12-9.854-0.38-17.423,0a1.271,1.271,0,0,0-1.147,1.37,1.033,1.033,0,0,0,.025.16,1.2,1.2,0,0,0,.939.92l9.308,1.89a33.5,33.5,0,0,1,4.055,1.16,0.574,0.574,0,0,1,.159.26c0,0.02-.171,2.02-12.44,5.6l-13.53,3.99a36.91,36.91,0,0,1-8.817-23.98c0-.17.011-0.33,0.013-0.5l5.773-4.28,3.444,1.23a1.211,1.211,0,0,0,.839,0l3.03-1.08,3.028,1.08a1.271,1.271,0,0,0,.839.01l3.031-1.09,3.034,1.09a1.334,1.334,0,0,0,.838,0l2.811-1.01,11.8,10.43a1.242,1.242,0,0,0,1.645-1.86L682,2342.8l5.979-4.49,2.667,1.08a1.177,1.177,0,0,0,.938,0l2.566-1.04,2.565,1.04a1.177,1.177,0,0,0,.938,0l2.569-1.04,2.57,1.04a1.177,1.177,0,0,0,.938,0l2.48-1.01,9.2,6.27a1.238,1.238,0,1,0,1.4-2.04s0-.01,0-0.01l-19.551-13.3a1.237,1.237,0,0,0-1.444.03l-15.71,11.79-16.3-14.41a1.252,1.252,0,0,0-1.562-.06L646.1,2338.63a37.207,37.207,0,1,1,70.332,20.27h0Zm-62.343-23.11,8.825-6.56,7.562,6.69-1.112.39-3.034-1.08a1.208,1.208,0,0,0-.838,0l-3.031,1.08-3.028-1.08a1.211,1.211,0,0,0-.839,0l-3.03,1.08Zm36.2,0.78,6.307-4.73,7.158,4.87-0.492.2-2.571-1.04a1.174,1.174,0,0,0-.937,0l-2.569,1.04-2.565-1.04a1.179,1.179,0,0,0-.939,0l-2.565,1.04Zm-1.248,18.86a1.243,1.243,0,0,0-.95-1.47c-0.779-.17-1.3-0.24-1.32-0.24a1.241,1.241,0,0,0-.323,2.46s0.448,0.06,1.119.2a1.159,1.159,0,0,0,.263.03A1.243,1.243,0,0,0,689.039,2355.43Zm6.353,7.65a1.238,1.238,0,0,0-1.676.52h0a12.617,12.617,0,0,1-1.409,2.05,1.238,1.238,0,0,0,1.906,1.58h0a15.409,15.409,0,0,0,1.691-2.47A1.243,1.243,0,0,0,695.392,2363.08Zm-9.223,9.6a1.239,1.239,0,0,0,1.735.26h0c0.792-.59,1.536-1.17,2.213-1.73a1.24,1.24,0,0,0-1.582-1.91c-0.644.53-1.356,1.09-2.113,1.65A1.234,1.234,0,0,0,686.169,2372.68Zm9.8-14.38a7.784,7.784,0,0,0-2.362-2.23,1.239,1.239,0,1,0-1.331,2.09,5.275,5.275,0,0,1,1.62,1.5,1.24,1.24,0,0,0,2.073-1.36h0Zm-14.4,18.67a1.271,1.271,0,0,0,.657-0.19c0.361-.22.714-0.45,1.059-0.67a1.237,1.237,0,1,0-1.339-2.08c-0.338.21-.684,0.43-1.038,0.65A1.24,1.24,0,0,0,681.569,2376.97Zm12.074-65.6a7.306,7.306,0,0,0-3.483-1.11,3.723,3.723,0,0,0-2.1.61l-3.6,2.41-5.472-3.32a2.476,2.476,0,0,0-3.348,3.49l2.809,4.18-1.481,1.15a5.017,5.017,0,0,0-3.712.76,2.477,2.477,0,0,0-.677,3.44h0l3.465,5.15a2.49,2.49,0,0,0,3.443.67h0a5,5,0,0,0,2.116-3.14l1.624-.93,2.809,4.17a2.479,2.479,0,0,0,4.508-1.77l-1.008-6.31,3.595-2.41a4.28,4.28,0,0,0,1.748-3.64,8.927,8.927,0,0,0-.1-1.71A2.458,2.458,0,0,0,693.643,2311.37Zm-1.237,3.3a2.132,2.132,0,0,1-.652,1.69l-4.912,3.29,1.259,7.87-4.1-6.09-4.814,2.77a2.517,2.517,0,0,1-1.077,2.55l-3.465-5.15a2.558,2.558,0,0,1,1.884-.39,2.406,2.406,0,0,1,.888.36l4.388-3.4-4.1-6.1,6.826,4.14,4.911-3.29a1.291,1.291,0,0,1,.717-0.19,5.27,5.27,0,0,1,2.179.74,6.531,6.531,0,0,1,.067,1.2h0Z" transform="translate(-643.438 -2302.72)"/>
</svg>
